…
file layout

math <- math %>% 
  filter(rtype == "S") %>% 
  select(cds, school = schoolname, subgroup = studentgroup, student_count = currdenom, avg_dfrom3 = currstatus)

math

## # A tibble: 215 x 5
##    cds            school             subgroup student_count avg_dfrom3
##    <chr>          <chr>              <chr>            <int>      <dbl>
##  1 43696416048193 Addison Elementary AA                   2      NA   
##  2 43696416048193 Addison Elementary ALL                217      57.3 
##  3 43696416048193 Addison Elementary AS                  45      73.8 
##  4 43696416048193 Addison Elementary EL                  44      26.1 
##  5 43696416048193 Addison Elementary ELO                 18     - 8.00
##  6 43696416048193 Addison Elementary EO                 158      60.6 
##  7 43696416048193 Addison Elementary FI                   1      NA   
##  8 43696416048193 Addison Elementary HI                  23     -22.0 
##  9 43696416048193 Addison Elementary MR                  31      62.5 
## 10 43696416048193 Addison Elementary RFP                 26      49.7 
## # ... with 205 more rows

math <- math %>% 
  mutate(subgroup = convert_subgroup(subgroup)) 

math

## # A tibble: 215 x 5
##    cds            school             subgroup     student_count avg_dfrom3
##    <chr>          <chr>              <chr>                <int>      <dbl>
##  1 43696416048193 Addison Elementary Black/Afric…             2      NA   
##  2 43696416048193 Addison Elementary All Students           217      57.3 
##  3 43696416048193 Addison Elementary Asian                   45      73.8 
##  4 43696416048193 Addison Elementary English Lea…            44      26.1 
##  5 43696416048193 Addison Elementary English Lea…            18     - 8.00
##  6 43696416048193 Addison Elementary English Only           158      60.6 
##  7 43696416048193 Addison Elementary Filipino                 1      NA   
##  8 43696416048193 Addison Elementary Hispanic                23     -22.0 
##  9 43696416048193 Addison Elementary Multiple Ra…            31      62.5 
## 10 43696416048193 Addison Elementary RFEPs Only              26      49.7 
## # ... with 205 more rows
