…
dr <- read_csv(url, skip = 4) %>% 
  select(State, 
         Total_Complaints = `Due Process Complaints (DPC) Total (3)`, 
         Settlement = `DPC Resolution Meetings - Written Settlement Agreements (3.1a)`,
         Adjudicated = `DPC Hearings (fully adjudicated) Total (3.2)`, 
         Pending = `DPC Pending (3.3)`, 
         Dismissed = `DPC Withdrawn or Dismissed (3.4)`) %>% 
  filter(State != "US, Outlying Areas, and Freely Associated States") %>% 
  arrange(desc(Total_Complaints)) %>% 
  filter(min_rank(desc(Total_Complaints)) <= 10) %>% 
  gather(Category, Count, -State) 

dr

## # A tibble: 50 x 3
##    State                Category         Count
##    <chr>                <chr>            <dbl>
##  1 New York             Total_Complaints  5170
##  2 California           Total_Complaints  3714
##  3 Puerto Rico          Total_Complaints  2354
##  4 New Jersey           Total_Complaints  1211
##  5 Pennsylvania         Total_Complaints   804
##  6 Massachusetts        Total_Complaints   492
##  7 District of Columbia Total_Complaints   457
##  8 Texas                Total_Complaints   370
##  9 Illinois             Total_Complaints   320
## 10 Connecticut          Total_Complaints   250
## # ... with 40 more rows
…
