…
Public education data

library(tidyverse)

# Names for disability vector
dis_codes <- c(seq(200, 280, by = 10), 281, seq(290, 330, by = 10))

# Make dataset
df <- tibble(
  student      = as.character(sample(111111:999999, 1000)), 
  disability_1 = as.character(sample(dis_codes, 1000, replace = TRUE)), 
  disability_2 = as.character(sample(dis_codes, 1000, replace = TRUE)))
df

## # A tibble: 1,000 x 3
##    student disability_1 disability_2
##    <chr>   <chr>        <chr>       
##  1 582742  290          280         
##  2 518239  230          220         
##  3 218606  250          240         
##  4 748460  281          260         
##  5 528129  250          330         
##  6 505739  250          280         
##  7 878479  240          310         
##  8 429343  310          330         
##  9 831494  240          310         
## 10 656547  281          260         
## # ... with 990 more rows
…
df %>% 
  mutate(disability_1 = dis_lookup[disability_1])

## # A tibble: 1,000 x 3
##    student disability_1                   disability_2
##    <chr>   <chr>                          <chr>       
##  1 582742  specific learning disability   280         
##  2 518239  deafness                       220         
##  3 218606  visual impairment              240         
##  4 748460  established medical disability 260         
##  5 528129  visual impairment              330         
##  6 505739  visual impairment              280         
##  7 878479  speech and language impairment 310         
##  8 429343  multiple disabilities          330         
##  9 831494  speech and language impairment 310         
## 10 656547  established medical disability 260         
## # ... with 990 more rows
…
  # Create named vector
  dis_lookup <- set_names(dis_desc, nm = dis_codes)

  # Create a new vector of disability descriptions
  as.vector(dis_lookup[as.character(x)])
}

df %>% 
  mutate_at(vars(disability_1:disability_2), funs(convert_dis))

## # A tibble: 1,000 x 3
##    student disability_1                   disability_2                  
##    <chr>   <chr>                          <chr>                         
##  1 582742  specific learning disability   other health impairment       
##  2 518239  deafness                       hard of hearing               
##  3 218606  visual impairment              speech and language impairment
##  4 748460  established medical disability emotional disturbance         
##  5 528129  visual impairment              traumatic brain injury        
##  6 505739  visual impairment              other health impairment       
##  7 878479  speech and language impairment multiple disabilities         
##  8 429343  multiple disabilities          traumatic brain injury        
##  9 831494  speech and language impairment multiple disabilities         
## 10 656547  established medical disability emotional disturbance         
## # ... with 990 more rows
…
